<svg width="15" height="11" viewBox="0 0 15 11" fill="none" xmlns="http://www.w3.org/2000/svg">
    <path fill-rule="evenodd" clip-rule="evenodd" d="M7.35596 10.4751C11.222 10.4751 14.356 8.23652 14.356 5.4751C14.356 2.71367 11.222 0.475098 7.35596 0.475098C3.48996 0.475098 0.355957 2.71367 0.355957 5.4751C0.355957 8.23652 3.48996 10.4751 7.35596 10.4751Z" fill="#FFB200"/>
    </svg>
    